Chapter 4 Summarizing Data | [PSY202A] Statistical Modeling in Psychological Sciences
…
## ── Attaching core tidyverse packages ──────────────────────── tidyverse 2.0.0 ──
## ✔ dplyr     1.1.4     ✔ readr     2.1.5
## ✔ forcats   1.0.0     ✔ stringr   1.5.1
## ✔ ggplot2   3.5.1     ✔ tibble    3.2.1
## ✔ lubridate 1.9.3     ✔ tidyr     1.3.1
## ✔ purrr     1.0.2     
## ── Conflicts ────────────────────────────────────────── tidyverse_conflicts() ──
## ✖ dplyr::filter() masks stats::filter()
## ✖ dplyr::lag()    masks stats::lag()
## ℹ Use the conflicted package (<http://conflicted.r-lib.org/>) to force all conflicts to become errors

peabody_tib <- as_tibble(peabody_df)
peabody_tib

## # A tibble: 40 × 3
##    peabody gender   age
##      <dbl> <chr>  <dbl>
##  1     123 M         35
##  2      99 F         45
##  3      80 F         38
##  4      81 F         40
##  5      90 F         38
##  6     104 M         42
##  7      69 F         36
##  8      86 F         45
##  9     107 F         34
## 10      94 F         36
## # ℹ 30 more rows
…
